<?xml version="1.0" encoding="utf-8"?>
<!-- Generator: Adobe Illustrator 19.0.1, SVG Export Plug-In . SVG Version: 6.00 Build 0)  -->
<svg version="1.1" id="Layer_1" xmlns="http://www.w3.org/2000/svg" xmlns:xlink="http://www.w3.org/1999/xlink" x="0px" y="0px"
	 viewBox="0 0 512 512" style="enable-background:new 0 0 512 512;" xml:space="preserve">
<g>
	<polygon points="434,168 369,168 369,234 303,234 303,299 369,299 369,365 434,365 434,299 500,299 500,234 434,234 	"/>
	<path d="M504.4,119c-7.9-23.4-21.6-43.6-39.6-58.5c-19.2-15.9-42.9-25.2-68.4-27C350,30.2,307.8,46.3,274.2,80
		C267,87.2,261,94.5,256,101.3c-5-6.8-11-14-18.1-21.2c-33.5-33.8-75.8-49.9-122.1-46.5c-25.6,1.8-49.3,11.2-68.5,27.1
		C29.3,75.4,15.6,95.7,7.7,119c-9.5,28.2-10.2,58.9-1.9,88.8c8.9,32.1,27.8,61.6,54.7,85.4c92,81.1,180.3,170.3,181.2,171.2
		l14.3,14.5l14.5-14.5c0.5-0.5,33.5-34,80.5-78.4v-55.4c-42,38.6-76.3,72.8-94.8,91.2c-29-28.8-97.9-96.1-169-158.8
		C38.6,220.2,34,167.2,45.9,131.9c11.5-34,38.7-55.8,72.7-58.2c3.1-0.2,6.1-0.3,9-0.3c30.6,0,57.7,11.5,80.7,34.2
		c19.8,19.5,29.1,40.5,29.1,40.6l18.4,43.2l18.5-43.1c0.1-0.2,9.4-21.1,29.2-40.7c25.2-24.9,55.5-36.3,89.8-33.8
		c34,2.4,61.2,24.5,72.7,58.5c8,23.7,8.6,55.8-6.6,86.8H503c1.2-4,2.3-7.3,3.3-10.8C514.6,178.2,513.9,147.2,504.4,119z"/>
</g>
</svg>
